%YAML 1.1
%TAG !u! tag:unity3d.com,2011:
--- !u!114 &11400000
MonoBehaviour:
  m_ObjectHideFlags: 0
  m_PrefabParentObject: {fileID: 0}
  m_PrefabInternal: {fileID: 0}
  m_GameObject: {fileID: 0}
  m_Enabled: 1
  m_EditorHideFlags: 0
  m_Script: {fileID: -2076007791, guid: aa81bbec85a3f423193272a7c6154986, type: 3}
  m_Name: 04
  m_EditorClassIdentifier: 
  mSourceClip: {fileID: 8300000, guid: e79d2583fa46f6c49853e2d9667c8908, type: 3}
  mAudioFilePath: 
  mSampleRate: 44100
  mIgnoreLatencyOffset: 0
  mTempoSections:
  - sectionName: New Section
    startSample: 0
    samplesPerBeat: 19173.913043478264
    beatsPerMeasure: 4
    bStartNewMeasure: 1
  mTracks:
  - {fileID: 11400000, guid: 50b6b0981d660674688a07aec0bf9b82, type: 2}
